<?xml version="1.0" encoding="UTF-8" standalone="no"?>
<!-- Created with Inkscape (http://www.inkscape.org/) -->

<svg
   width="100mm"
   height="100mm"
   viewBox="0 0 100 100"
   version="1.1"
   id="svg5"
   sodipodi:docname="github-logo.svg"
   inkscape:version="1.1 (c68e22c387, 2021-05-23)"
   xmlns:inkscape="http://www.inkscape.org/namespaces/inkscape"
   xmlns:sodipodi="http://sodipodi.sourceforge.net/DTD/sodipodi-0.dtd"
   xmlns:xlink="http://www.w3.org/1999/xlink"
   xmlns="http://www.w3.org/2000/svg"
   xmlns:svg="http://www.w3.org/2000/svg">
  <sodipodi:namedview
     id="namedview7"
     pagecolor="#505050"
     bordercolor="#eeeeee"
     borderopacity="1"
     inkscape:pageshadow="0"
     inkscape:pageopacity="0"
     inkscape:pagecheckerboard="0"
     inkscape:document-units="mm"
     showgrid="false"
     inkscape:zoom="1.7367907"
     inkscape:cx="241.82534"
     inkscape:cy="168.12619"
     inkscape:window-width="1920"
     inkscape:window-height="1019"
     inkscape:window-x="0"
     inkscape:window-y="0"
     inkscape:window-maximized="1"
     inkscape:current-layer="layer1" />
  <defs
     id="defs2">
    <filter
       style="color-interpolation-filters:sRGB;"
       inkscape:label="Invert"
       id="filter899"
       x="0"
       y="0"
       width="1"
       height="1">
      <feColorMatrix
         type="hueRotate"
         values="180"
         result="color1"
         id="feColorMatrix895" />
      <feColorMatrix
         values="-1 0 0 0 1 0 -1 0 0 1 0 0 -1 0 1 -0.21 -0.72 -0.07 2 0 "
         result="color2"
         id="feColorMatrix897" />
    </filter>
  </defs>
  <g
     inkscape:label="Layer 1"
     inkscape:groupmode="layer"
     id="layer1">
    <rect
       style="fill:#000000;fill-opacity:1;stroke:none;stroke-width:5.06494;stroke-miterlimit:4;stroke-dasharray:none"
       id="rect22749"
       width="95"
       height="95"
       x="2.5"
       y="2.5"
       ry="47.5" />
    <image
       width="90"
       height="86.659821"
       preserveAspectRatio="none"
       xlink:href="data:image/png;base64,iVBORw0KGgoAAAANSUhEUgAAA9UAAAO8CAQAAADtuF8GAAAABGdBTUEAALGPC/xhBQAAACBjSFJN AAB6JgAAgIQAAPoAAACA6AAAdTAAAOpgAAA6mAAAF3CculE8AAAAAmJLR0QA/4ePzL8AAAAJcEhZ cwAAAGAAAABgAPBrQs8AAAAHdElNRQflAxoLHR1iZgKeAABurElEQVR42u3dd7wU1d3H8e+59N4R BRVRpImigAUsWKNiwV6xd2NN0fgkUaMxGjVqrNii2DVWbNi7IqAoIIqigmIDBKXX8/zhlVBu2d07 M7+ZOZ93Xs8j3HvZ/c7c2fnuOTM747wApN1iP0uzNFM/6yct1Swt0Wwt1DzN00LN1hLNkpf0k5Yt /xdes1b49/XVQJLURLUlOTWXJDVWAzVRY9VX05X+fyM1Vz1nvcwAfuWoaiAtZvjvNU3f6AfN1EzN 0kzNKv//cxLP0kgt1VKtVvi/X/6+plpQ4kDCqGrAwGI/VV9pqn7Q9/q2/P9P0yLrWAWprzW1ltpp LbVTe62h9lpDbalvIEZUNZCAn/0Ufakp5f/7Ut+uMFWdB3XVXh3VUeuV/99aKqO8gchQ1UAsvvaf 6lN9qon6UlNWOm4cgrpaRx3VUR3VSRtqQzWhuIEaoKqBiMz0n+tzfa7x+kgTNds6Tqq0UCd1Vw91 Und1VS2KGygKVQ3UwHT/ocZqnMZqomZah8mIeuqsLuqijdRTXVSH2gaqRVUDRVrkP9VofaTx+kif W4fJuDrqrB7qrt7qozUpbaASVDVQkO/9KI3SWH2oz7XUOkwuraGNtYk2Vi91Z4ocWAlVDVThZ/+h Rmu0Rusj6ygBaaRe6q3e6q3ucpQ2QFUDq5vtPygv6AniFWKpqXqqt3prG61HZSNgVDVQbq4fo1Ea qVH6NGefes6D9uqrbdRfm3EiGgJEVSN4n/k39Ibe1Uccg86ARtpc22hrbclntREQqhqBWuo/1pt6 Q69psnUUlKCWumhr9dcArUNlI/eoagRmnh+h1/Wm3uYiJTnRWTtoR22v1lQ2couqRiB+9u/qBb2h UVpoHQWx6KSdtJN2UTMqG7lDVSPnpvoX9bre0MfWQZCIutpSO2pHbaHaVDZyg6pGTs32r+gFPa8J 1kFgoom2027aXR0pbOQAVY2cWerH6AW9oNcycvdnxKuT9tCe2lZ1qWxkGFWN3Pjcv6AX9HxwN5xE 9Rppe+2pgWpPYSOTqGpk3nf+Rb2g5zXVOghSrkybaaAGqg+XK0XGUNXIrCX+DT2p5zSOi3+iKB20 j/bRttwUBJlBVSOD5vqX9KQe1/fWQZBhLTVQe2p3NaKwkXpUNTLlS/+chuk5ThlDRBpqBx2gQWpK YSPFqGpkwlI/Qk9oGLeiRCzqa2ftp0FcPgUpRVUj5eb5F/Wkhulb6yDIvXraWQdoP6bEkTpUNVLr G/+YntArXAgUiWqqQTpYO3O1M6QIVY0UmuGf0kN6VkusgyBYLTVQR2gHlVHYSAGqGqnyg39YD+p1 7hyNVFhHB2mwelLXMEZVIyV+9E/qIQ3XYusgwCq66wgdozYUNsxQ1TA30w+jpJFydbWLjtAg1aGw YYCqhqFZ/gk9xKekkRlr6gAdo02oaySMqoaJ+f5R3avnKWlk0BY6SgerOYWNxFDVSNxoP1T3aIZ1 DKAG6mkvnaCdqGskgqpGgqb6u3W7JlrHACLSTUfqBLWgsBEzqhqJWOCHaSiflEYONdEhOkmbUteI EVWN2I32Q3W3frSOAcSot07Q4WpIYSMWVDViNMUP1VB9ah0DSERLHalTtAF1jchR1YjFfP+w7tDL WmYdBEhUmQbqDO1IXSNSVDUiN9Hfrts03ToGYKaLTtbxTIcjMlQ1IrTQP6Gb9aLYqoA2Oka/VQfq GhGgqhGRT/1tul3TrGMAKVJXe+ssbUVdo4aoatTYUv+krmMsDVRiG52lvbmdJmqAqkaN/OTv0DX6 wjoGkHLr6zSdqPrUNUpCVaNkY/yNulvzrGMAGbGGTtKZXDscJaCqUYKl/hH9W29YxwAyp4VO1enc +xpFoqpRpNn+dl2tL61jAJlVTwfqL+pMXaNgVDWK8KX/t27Tz9YxgMyrrYP1R/WkrlEQqhoFGu2v 0X3cbgOIjNNAXaDe1DWqRVWjWt4/qcv0pnUMIIeoaxSCqkaVFvv79E+Nt44B5Bh1jepQ1ajUXH+r /qUp1jGAAFDXqApVjQpN9//W9dxjGkiQ0946X72oa6yGqsZqvvNXaIjmWMcAAuQ0SBepB3WNlVDV WMlX/grdovnWMYCAlWk/XapO1DWWo6qx3Jf+Kt2sBdYxAKiujtKFakddQxJVjXKf+ot1L5+aBlKk iX6ns9WEugZVDWmyv0S3U9NACrXSH3QGd+QKHlUduCn+Sg3RQusYACq1tv6sY1WLug4YVR2wr/0l uk2LrGMAqNZGulK7UNbBoqoD9YP/O6NpIFN20xXqTl0HiaoO0Bx/vS7h/lhA5tTWMfqb1qCug0NV B2aRv0N/1ffWMQCUqLF+p3M50SwwVHVAlvmHda4+t44BoIbW0UUaLEddB4OqDsYT/lxNsA4BICLb 6F/qQ1kHgqoOwmj/e71iHQJApJyO1KUcuQ5CmXUAxO1rf6LfgqIGcsfrDnXVNX4JI67cY1Sda3P8 FfonN98Acm0TXaetGVvnGlWdW0v8zbpA06xjAIid0+H6Jzf3yDGqOqde9mfqQ+sQABLTSL/XeapL XecSVZ1DX/n/013WIQAkrouu1c6UdQ5R1Tkzx1+iq7jnNBAop0N1JWeF5w5VnSPe36U/6RvrGABM tdDlOoYLpOQKVZ0bH/pT9KZ1CACpsLVuVjfKOjf4XHUuzPXn+t4UNYByb2gTnesXMhbLCUbVOTDM n6qvrEMASJ3Oukk7MLbOAUbVGTfR7+L3oqgBVOBT7aQj/AxGZJlHVWfYPH+O30jPW8cAkFped6mn /ktZZxwT4Jk13J/CDS0BFGSQbuRqZhnGqDqTvvdH+F0pagAFekzddDMjs8xiVJ053t+l32m6dQwA mTNQN2stxtYZRFVnzMf+RL1mHQJARrXWtTqYss4cJsAzZIm/zG9KUQMo2XQdoj38N4zRMoZRdWaM 88dopHUIADnQXJfpBMbWGcKoOhMW+Qt8b4oaQCRm6UTt739gpJYZjKoz4AN/jN6zDgEgZ9roVu3F 2DoTGFWn3CL/f74PRQ0gctM0SCf7eYzXMoBRdaqN80fofesQAHKsk+5SP8bWKceoOrWW+Mt8H4oa QKw+13a6wC9l1JZqjKpT6nN/pN6wDgEgEFvqbq3P2Dq1GFWnkPc3+40pagCJeUebceHRFGNUnTpT /RF6yToEgAAdpBvVgrF1ClHVKfOIP0EzrEMACNTauk/9KevUYQI8Reb7M/x+FDUAM19pgC7wyxjD pQyj6tQY6Q/XROsQAKAddTd3t04VRtWpsNRf4vtT1ABS4UX11quM41KEUXUK/OAH6znrEACwglr6 s/6iWoytU4GqNveiP1zfWYcAgNUM0D1ai7JOASbATS3xF/hdKGoAqfSKeukZxnMpwKja0Jf+EL1j HQIAqlCm83Shyhhbm6KqzTzij9Us6xAAUK3f6B61oqwNMQFuYok/1+9PUQPIhOHaVO8yrjPEqNrA VH+Q3rQOAQBFqKdrdTwjayNUdeJe9QdzIhmADBqsIWpAXRtgAjxR3l/jd6KoAWTSXdpaXzC+M8Co OkE/+6P1iHUIAKiBVrpXuzCyThij6sR86DelqAFk3Aztrku9Z5SXKEbVCXnAH6u51iEAIBIH6A41 ZGydGEbVCVjqz/WHUNQAcuMh9dNkRnqJYVQdux/9IdyMA0DutNZ/tR0j60Qwqo7Zh74vRQ0gh6br N/oPo71EUNWxetj30+fWIQAgFgt1jH7vl1LXsWMCPDbe/1PnaZl1DACI1W90v5ozER4rqjomC/3x uss6BAAkoLMeVzfKOkZUdSy+9ftohHUIAEhICz2gnSnr2HCsOgYf+K0oagABmanddCMjv9hQ1ZF7 xPfTZOsQAJCopTpF53EVs5gwAR6xa/zZnEoGIFD76S7uvRUDqjpCS/2Zus46BAAY2lJPqA1lHTGq OjJz/SEaZh0CAIytr6fUhbKOFFUdkW/9nhptHQIAUqClHtW2lHWEOK0sEuP8lhQ1AEiSftQuupdx YISo6gi84rfWFOsQAJAaC3W4LqOsI8MEeI095g/RAusQAJA6p+rfKmMiPAKMqmvoer8fRQ0AFbhe B2gB48EIUNU14P0F/rd8ihoAKvGIBupnyrrGmAAv2VJ/im62DgEAKddHT/NJ6xqiqks03x/Ep6gB oABdNFzrUtY1QFWXZI7fRy9YhwCAjFhTz2gTyrpkVHUJfvS7c+csAChCcw3T1pR1iTitrGjf+gEU NQAUZZZ20iOMDUtEVRfpU7+VxlqHAIDMWaiDdA9lXRKquijj/QDuRQ0AJVmiwbqOsi4BVV2EEX4b fWMdAgAyy+t0XUNZF42qLtibfhfNtA4BAJnmdaYupKyLxBngBXrN76HZ1iEAIBfO0aWcDV4Eqrog r/g9Ncc6BADkxim6To66LhAT4AV4xu9GUQNAhG7QiVrGWLFAjKqr9aTfXwutQwBA7hyioarNyLoA VHU1HvEHa7F1CADIpf10n+pQ1tWiqqv0tN+XETUAxGZf3U9ZV4uqrsIzfh+KGgBiRVlXj9PKKvUs RQ0AsXtEh2gxo8YqUdWVGE5RA0AiHtahWkJZV4EJ8Ao95/fWAusQABCM/XUfZ4NXiqquwEt+IEUN AIk6QPdS1pWgqlczwu/MJUQBIHEH6h7KukJU9So+9NvrR+sQABAkyrpinFa2kgl+J4oaAIw8qOO4 3GgFqOoVTPG7app1CAAI2J06zTpCClHVy031AzTFOgQABO4GncW4ehVUdbkZfmd9YR0CAKCr9Q/K eiVUtSRpnt9LE6xDAAAkSefpX5T1CjgDXNJiv5eetQ4BAFjO6RYdy7ng5RhVa5kfTFEDQKp4nagH GUuWo6p1th6wjgAAWMVSDdbTlLUkqloX+GusIwAAKrBI++s1ylrBH6se4k+yjgAAqFQzvaxNgz9m HXRVP+331hLrEACAKrTRm+oceFkHXNWj/QDNsQ4BAKjG+npTawRd1sFW9Rd+K31vHQIAUIA+elmN Ay7rQE8rm+F3o6gBICNGaZAWhTqyVKBVPd/vrU+sQwAACvaijpYPtqwDrOplfrDetA4BACjKvTrP OoKZAKv6PD1sHQEAULRLdXWg4+rgTiu7wx9tHQEAUBKnOzU4wNPLAqvqV/0uWmQdAgBQonp6VgOC K+ugqvpzv6WmWYcAANRAM72pHoGVdUBV/aPfShOtQwAAamg9vaO2QZV1MKeVLfb7UdQAkANfaD8t DGecqYCq+jS9Yh0BABCJN3REUJ+yDqSqb/RDrCMAACLzoC60jpCgII5Vv+l34LxvAMiVkD64FUBV T/F99YN1CABAxOrqWW0fRFnnvqrn+201yjoEACAGrfSWNgygrHN+rNr7YyhqAMipGdpd0/I+4lTu q/oy3W8dAQAQm0k6REtyX9a5ngB/0f9GS61DAABidYauzvkkeI6reorvw2VEASAAt+i4XJd1bqt6 gd9WI61DAAASUEcvapscl3Vuj1X/lqIGgEAs1oH6Oq8jT+W2qof426wjAAAS85321vzclnUuJ8Df 9dtqoXUIAECijtJ/cjoJnsNR9Ux/EEUNAMG5Q1fncfSpHI6qvd9Xj1mHAAAYqKVh2i2HI+vcjaqv pKgBIFBLNVif520EqtyNqkf4bbmHFgAEbGO9owY5G1nnalQ90x9MUQNA0D7U6dYRIpejqvb+aH1p HQIAYOxW3Z6vCeM8VfXletw6AgAgBX6rD3JV1rk5Vj3K92fyGwAgSeqo0WqZmyPWORlVz/GHUdQA gHJf6kj5vIxF81LVJ2uidQQAQIo8qcutI0QmFxPgQ/2R1hEAAClTS89o51xMguegqif5zfSzdQgA QOqsodFqn4OyzvwE+GJ/CEUNAKjA9zpUS7M/Is1+Vf+Z+1IDACrxmv5mHSECGZ8Af8MP0FLrEACA 1CrT89oh45Pgma7qOb6XJlmHAACkWnuNUetMl3WmJ8BPo6gBANWYmvnPWGe4qh/3d1hHAABkwNO6 1jpCjWR2Avx731PTrENkRlO1liTN0E/WUQDAQD29rU0zOwme2are0z9pHSH1yrSLdtV26qxGyzfQ RX66vtUkTdIkfayxfNANyJQ6aquWaqmWaqWWailJWqLv9bXe02TrcCnXRaPUOKNlndGqvsWfYB0h 9fbXhepe7Wb5hf9QY/WBPtQkzqUHUqeeNtCGWl9ra221Vwe1U1mlr+qJ/jH9S99bR06xI3UHVZ2c yX5jRoNVaqBrdWyRm+Q8P16j9K5G6BMts14AIGD1tJF6aWN1VWetW0U1V2Sev0oXaIn1IqTW3Tos k2Wdwar2fhe9YB0i1Wrrce1eg83xJ/+uRmiEXuMNEZCYOtpMW6qPNlE31a5RnbzgD9RM68VJqSZ6 X+tnsKwzWNVD/EnWEVLuFh0Xyaa41I/Wy3pZb2iu9SIBudVS26qftlJvNYisQkb5bbTAesFSqr9e Va3MlXXmqvpLv7FmW4dItT31RMSb4WI/Qs/qaY1R1rYWIL0aamvtqB21aZFT3IW50x9lvYCpdYn+ RFXHy/ud9aJ1iFRrqglaK6bN8Bv/tJ7W85pjvZBApm2gPbWH+qterIWxv3/YekFTqq7eydzHtjJW 1Tf6U6wjpNz/6eKYN8GF/iX9V4/pR+tFBTKmlvprD+2pronUxKe+hxZbL3JK9dAo1c9UWWeqqr/0 PRnRVamJvlCrRDbAxeWFPd16kYEMKFM/Haj9tWai9XCyv8l6wVPrLP2Lqo7Lrn64dYSUS3rzW+Jf 1N16lNPOgEr10aE6QB0MimGc72m98KlVphe0fYbKOkNVPdQfaR0h9cYXcNGT6M33T2qonuWznMBK 2ulAHa1ehoXQ14+yXgmp1V5j1SIzZZ2Zqp7muzPZWo0Betlww5vq79at+sx6JQApUFt762j9poaf j665G/yp1qsixQZrKFUdtcP8vdYRUu9OHWG84Xn/km7RY1povSoAM2vpeJ0Q2+cwivOdb8+1B6vw kPZPxe+pehmp6mf87tYRUq+evlezVGx20/ydukUTrWMAidtep2iQ+Vh6Rf3829YRUqyVxiZ8ql+p MnG/6rlM4hRg15QUtdTG/d59rOd1gGpZRwESUkcHaIRecvu7NBW1tJd1gFSboazc+CkTVX2evrCO kAEHWAdYiXM7uQfdBJ2uptZRgJg11e81SQ+6zVNV0r/Y2zpAyj2p+zMxtZyBCfDRfgtuz1itWvpB LVO4o5Bm+//oKn1pHQOIRWudrVPVNJWvvV9s6D+1jpBqbTRebVL8+/tF6kfVy/ypFHUBtkppUUtN 3Olukp7QFtZBgIi11vn6TH9yaS5qxtXVmabTrSMUIPVVfaNGWEfIhN2sA1SpzO3p3nEvalelep8G FGwNXanJusCl5QyRynG0ujr367HUTy+nfAL8O99Ns6xDZML7phdaKNxYf7nu4eMjyLTGOlXnpXrS e0VLfBv2otVop/GpnZf8RcpH1WexiRVkTW1iHaFAPd1Q94EGc244MqquTtBnujTlk94rqu12sI6Q et/pbOsI1Uh1VT/v77eOkBG7y2VmxyFt5Ia6MToo3RsfsJoyHalJGuLWyNCrTZJ+Yx0gA+7UM6me Yk7xBPhCv4k+sQ6REQ9r34ztPCTpI3+p7uPK4ciIzXW1tsrg60ya7DtaR8iAtTRezVP7+03xwOZy irpAdbWTdYSSdHdD3TgdzmQ4Uq+jHtA7GS1qaV3X1TpCBnyjc60jVCG1VT3F/8M6Qmb0y8wJLqvr 4u5yE3QkdY3Uqq8LNEEHuiwdZFoVU+CFuFmvpXaaObVV/XvNs46QGVk/aaSzu8N9yKc/kUq7apzO d/UzXNOStLN1gEzwOkmLUlrWKa3ql/xD1hEyJOtVLUnd3WPuHW1vHQNYwVq6U8+49TNe05K0NfNW BZmgy60jVCKVp5Ut8b003jpEZjTWj6qTg53JL57yf9JY6xCAyvRb/V2Nc/PK6uNHW0fIhAYaqzS+ OUvlqPo6iroI2+SoqKWBbowe1PrWMRC4DfSirnH5KWppW+sAGTFfp1hHqFAKq/oHf6F1hEzJw/T3 isrcAW6ChmgN6yAIVG2do7EakKOalqjqwj2XynttpXAC/Dh/m3WETBmpPjnbqfziZ3+F/qW51jEQ mN66NSMX6S3ODN+WC/oWqJ0mpO4T1qkbVY/x/7GOkCmN1Ms6Qkyaur+5iTqB02GQmAa6VCNyWdRS K9fDOkJmfKf/s46wmtRV9Vm88ytKX9XO5Y7lF2u5IW6kBljHQBB+o/E6x9XK7etpa+sAGXKTRqRs wjllVf2of8U6Qsb0sw4Qu03dy+4RdbaOgVxbW/fpWbdebmtaEneML8IynaglqSrrVB2rXuS7a5J1 iIwZpj1yvXv51SJ/nS7WTOsYKVNPDSXVUlNJUjOVSWqk+SvNTM1efpX1OVrMGqxAA/1Rf1TD3L+O Jvju1hEy5UqdnaJtIlVVfYX/g3WEjHGaplYp2pziNcNfoCFabB0jEfXUWq3USq3VQi3USA3VRM3U UI3UTI3VSI3UvMS7qS3yczVXizRLizRH87RAM/Rj+f9+/VMY61iSnA7Q5VoniNfQMt9SP1mHyJCm +lhrpmbLSFFVT/Od2ZCK1EUfp2ZTSsbH/vd6yjpEpNZQO3XQmlpreTm3VivjS2/M9j9qur7TN/pG U/WNvtZ3+t56RcVgN12k3gG9gnbyL1pHyJQjdGdqto7a1gH+53yKumi9rQMkrqt7Us/7M/WRdZCS 1NE6Wlft1V5rqr3WVAe1U93U7Az+p4lronVX+doi/52+1jeaqi81SZ/pcy20jlkj2+si9U/huo/T 5qKqi3GXTvJpuZtaaqp6gr/FOkIGbWodwMTOboy/QRdolnWQajmtpfWW/6+jOii75xfXdetonRX+ 7v3XmlT+v880KUNvtJ121x+0XWZ/E6Xb3DpAxnidrhG+LBVbSmomwPfxj1lHyKAXtUMqNiML0/z/ 6bbUfbTPaW1tqC7qqs5aT+uqXjC/n+l+gsZrrMZrrH60DlOpejpcZ6t7ML+VlU3x69b8QQJzi45L xdaSkqp+0/OZv+I5zVCLVGxGVt7zZ+gN6xBqog21obqqizZUlwDOJK7et36cxmm8PtQEzbEOs9wG OlrHqF3Qv58WfpZ1hIxpq09SceWylFT11v5N6wgZ1EmTUrAJ2fL+Pp2jrxN/3nrqrp7aSJuouzoE /1uonPdf6H29q5EarZ/NUjTQfjpW25V4znyebOtft46QOWfqqhRsN6mo6sf9IOsImbSf/puCTcje XP8PXakFsT+P03rqqY20sXqqc66vEheHZf4TjdRIjdSYBE9Ia6jdtJ/2UBN+W5KkU/0N1hEyp47G pOCQSQqqeonfWBOsQ2TSX3Wh+QaUFp/73+vRWB65tnqot3prU23EDj8Si/2H5aX9kZbG9ixra0cN 1O4ckFjJTf5k6wgZtJOeN9+KUlDVt/gTrCNk1P06yHwDSpO3/Hl6NaLHqlNe0L21seqzlmMy17+n URqp0ZoUWWmvoy20vXbUhvzWKsBZQaV5WPsab0/mVT3Pd9Y3xhmy6gNtzO5oFS/56/REybv9Wuqu LcoLOpxzt9NgoZ+gjzVWH+sLTS76DPLG2kAbaBP1Vh+14fdWhZ98C1nv87NoPX1k/JbdvKr/6c8x TpBVtTSH8V6FJvs79F+NK+JftNKW2lJbagumuFNhtp+iLzRdMzRd0zRLP0laVH7v8saqo9pqojZq rTZqow7aQGvwWytYe8/QqBT/1B9CruqffSfNME2QXRvoU3ZQVfjYD9OreqOKS3PU0kbaSltqS3Vh TSIQA3xUB4nC0lyfmd5vwfhqZf+iqEvGXXKq1tV11R+01H+kjzRBn2mGftRMNVaZWquTumkj9TW+ 0jaQvA0iO58jLLN0ka42fH7Tqp7hr7J8+ozbwDpAJtRyPdXTOgSQGuw3SnWDTvWdzd7cl1ku+qWG F0XIvvWsAwDInM7WATJrsf7P8NkNq/pbPoxfI1Q1gGJR1aV7SG+andxlWNUXa57dk+cAVQ2gWBuI EzRKd468UVmbnQH+pe+iRUbPnQdOc9WA1xyAIrXx060jZNh/tZ/JftdsVP0PirpG2lHUAErQwTpA pv1Ji03Gt0ZV/ZW/w+aJc2Nt6wAAMqm9dYBM+1Q3mTyvUVVfwpi6htawDgAgk6jqmvmbfjYYV5tU 9Vf+PxZPmytrWQcAkElUdc1Ml8X1QEyq+tIE71ebV+2sAwDIJKq6pq7QtMTH1QZV/bW/LfknzR2q GkApqOqamqMrEn9Og6q+jDF1BJgAB1CKVtYBcuBaTU14XJ14VX/rb036KXOJlxuAUrS0DpAD83Vp ws+YeFX/SwuSfspcamEdAEAmUdVRuFlfJDquTriqf/RDkn3C3GpuHQBAJjVTLesIObBIFyf6fAlX 9b81O9knzK3m1gEAZFKZa24dIRfu1McJjqsTreq5/vokny7H6qohlxUFUBKmwKOwVBcm+GyJVvVN 4jLx0WhuHQBAZjW3DpATD+rDxMbVCVb1Qv+v5J4s5xpbBwCQWQ2sA+TEMv0lsedKsKr/o2+Se7Kc q28dAEBmsf+IyhMandC4OrGqXuqTv75LftWzDgAgsxhVRyepz1cnVtWPaFJSTxUA3hUDKBX7j+g8 rHGJjKsTq2qOU0eJUTWAUlHV0fEJjasTqurX/TvJPFEgqGoApaKqo3S/JiYwrk6oqq9M5mmCUcc6 AIDMqmsdIFeWJjKuTqSqJ/phSTwNAKBay6wD5MzdCVwPPJGq/hebRsQSv685gNxg/xGtxbo89udI oKqn+aHxP0lgeOsDoFRUddRuj/3+1QlU9Q2aH/+TBIaXGoBS8VY/agtjH1fHXtUL/U1xP0WAqGoA pWL/Eb0h+jbW1Rp7VT+g7+J+igAttQ4AILOo6ugt0HWxPn7sVX1N3E8QJA4pACjVYusAuXST5sT4 Hijmqn7dvxfvEwRqnnUAAJk1xzpALv2o22J89JirmjF1PKhqAKWiquNxtZbENq6Otaon+8fjfPiA zbUOACCz2H/E40v9N7bHjrWqr9OSOB8+YIyqAZSKUXVc4rvVc4xVPc/HOXMfNl5qAErFqDouo/Vy TFPgMVb1PZoZ34MHbpHm8nkLACXhrX584hpXx1jVXPokTjOsAwDIqFnWAXLsGY2LZRgVW1W/w8e0 YkVVAyjFHM+5LvHxMd3yObaqvjG2VQGJqgZQmh+sA+TcPfo6hnF1TFU9wz8Y79oIHlUNoBTTrQPk 3GJdH8OjxlTV/9GCWFcGeLkBKAWj6rjdqvmRj6tjqWrvb45/bQTuG+sAADKJqo7bdN0f+WPGUtXD 9WnsKyN0X1sHAJBJ06wDBCD6u2zFUtVDYl8R+Mo6AIBMmmodIADv6c2Ip8BjqOrv/FPJrI2gMaoG UIovrQMEIepxdQxV/R/uhpqAr+S5XhmAon1hHSAID2tqpHvoyKvac+XvRCzg41oASjDZOkAQFuuW SB8v8qp+SZMSWxlh+9w6AIDMme5nW0cIxBAtinBcHXlVR/tOApXjLHsAxfrSOkAwvtPDET5axFU9 3T+W5LoI2kTrAAAyh+nv5Fwb4WNFXNVDtTDRVREyRtUAivWxdYCAvK1RkU2BR1zVnFKWHKoaQLEm WAcISnS3go60qkf4jxJfFeFiAhxAsdhHJ+kBzY5oXB1pVd9psS6C9XMst1oDkF/LPBPgSZoT2dXA I6zqBT76S5SjKh9YBwCQKZ9rvnWEwET1magIq/pxzTRZFeEaYx0AQKYw/Z20kXo/ktnPCKua6e+k MaoGUAyqOnnRnGwdWVV/5583WxWhoqoBFOM96wABulvzIhhXR1bVd2qJ5doI0meaw4llAAr2rnWA AP0UyVXLIqvqoYarIlTLGFcDKNg0z7XKLERxallEVT2KT1SbeNs6AIDMGGkdIFCv6+Maz39GVNX3 WK+LQL1jHQBAZjD9beXWGj9CJFW91D9gvSYCxagaQKFGWQcI1tAa3xAzkqp+Sd9ar4lAfaMpnFgG oCBMgFuZpidr+AiRVPXd1ushYEyBAyjEx/4H6wgBq2lLRlDV8/2j1mshYG9YBwCQCa9aBwjaU5pR oxnQCKr6Cc22XgsBe9k6AIBMeMU6QNAW6cEa/fsIqpqzvy2N13ccrQZQrdesAwTurhr96xpX9Qw/ 3HoNBM0zrgZQrYn+G+sIgXtHn9VgWFXjqn5Yi6zXQOBesg4AIPV4S2/N1+jUshpX9UPWyx88qhpA dTipzN7d8iWPq13NDnT+4Ntzmw5zU7S2s84AIM3W9VOsI0BvqH+J++oajqofoahT4H3rAABSbSpF nQqln1pWw6qu2enniMbH1gEApNqn1gEgSXpQC0ucyK5RVX/nOf0/DWZZBwCQatz8Mh1mlnyB0RpV 9cNaar3kkDTPOgCAVJtlHQDl7i/x39Woqpn+ToeG1gEApNpc6wAo97TmlDQFXoOq/sZz/el0aGYd AECq1bUOgHLz9FRJ/64GVf2EllkvNSRJHa0DAEi1RtYBsFxp1yKpQVU/Zr3EKNfZOgCAVGtvHQDL lTYFXnJV/+y5UF06NNRG1hEApFon6wBYbn5JZ4GXXNVPce3vlNhKdblWGYAqdFVT6whYrpQp8JKr +gnrpUW5PawDAEi52m5b6whY7hnNLnoKvMSqXuyftV5aSJJq6WDrCABS7wjrAFhuvoYV/W9KrOqX +Eh9Suyndkx/A6jG3trQOgKWK34KvMSqftx6SSFJqqW/WkcAkAF13W2qZR0C5Z4tegq8pKr2vvjh O+LwB/VgTA2gAFu7f1pHQLkFRZ/tVVJVj9TX1ksKSVvpQusIADLjbHeUdQSUe6TIny+pqh+zXkpI Wk+P8TEtAEW4WdtYR4AkabgWFDUFXlJVc6TaXis9q7YUNYAi1HEPqIN1CEiaq5eK+vkSqvoz/5H1 Ugavrh7ShhQ1gCKt6R5WPesQkIr8wFYJVf2o9RJCt2l7ihpACTZ3V1hHgKRh8kVMgZdQ1Y9ZL2Hw fqfDKWoAJfqt44Io9qZqdBE/XXRV/+DfsV7CwO2oS60jAMi0G9TDOgKK+sBW0VXNXaptddKDqs2Y GkANNHL/5R7W5mKuatipr4fVkqIGUENd3b+tIwTvA00u+Gh1kVW9iLtUm7pGvShqABE4xh1qHSF4 hQ99i6zqNzTHetkCdpBOoKgBRGSIOltHCFzhH9gqsqqfs16ygHXRrdYRAORIY3eXaluHCNqr+qnA KfAiq3q49ZIFq67uU2PG1AAitIU7zzpC0BYV3KlFVfV3/gPrJQvWRdqUogYQsb+or3WEoMVS1c+p yFtsIiJb63fWEQDkUG13pxpYhwjY8AKvWVZkVcNCM92lWoypAcSgm7vYOkLApqqwe2oUUdXeP2+9 VIH6lzpS1ABicqa2so4QsMKmwIuo6vf1g/UyBWkHHW0dAUCOlbkhqmMdIliFzVYXUdWc/W2hkW6R Y0wNIEY93ZnWEYL1quYXcLSaqk65f6oTRQ0gZheok3WEQC3Q6wX8VMFVPdu/bb1EAeqnk6wjAAhA Q3etdYRgPVvAzxRc1S9rkfXyBKeWrlcZY2oACdjdHWgdIVCFHK0uuKqZ/k7e6dycA0BirlFz6whB Gq+vqj1aTVWnVjudbx0BQEDauUusIwSq+g9CF1jVk/wk62UJzpVqxpgaQIJO5BPWJqofChdY1Yyp k7alDrGOACAwZe5qMUJI3svVXl60wKrmkqLJcrqaT1MDSNzm7gDrCAGaVu3lRQuq6qX+VeslCcxh 2oKiBmDgUtWzjhCgV6r5fkFV/aFmWS9HUBqIkzsA2FjPcTWH5FU3HC6oqhlTJ+s0rc2YGoCR89XS OkJwXq3maDVVnTrN9EfrCAAC1sKxD0raD5pQ5fcLqGrv37BeiqD8Xq0YUwMwdIbWtY4QnKqHxAVU 9XhNt16GgLTRGdYRAASuvrvIOkJwalzVr1kvQVD+qCaMqQEYO0ybWkcIzCtVHq0uoKo5Up2cFjrR OgIAqMz9xTpCYL7XJ1V8t4Cq5kh1cn7LmBpAKgzSRtYRAvNKFd+rtqo/8d9Y5w9GQ51mHQEAJEmO 88ATVtUMdrVVzZHq5ByvNoypAaTEIepkHSEoNapqjlQnpY7Oto4AAMvVdn+wjhCUbzW50hPLqq3q 163TB2Ow1mFMDSBFjlZ76whBebvS71RT1Z/7KdbZA1Gm31lHAICV1HNnWUcIyjuVfqeaquZIdVL2 VXfG1ABS5iS1to4QkJJH1VR1Us60DgAAq2nkTreOEJAxWlDJ0WpX5c08tL7/3Dp7EHrqQ8bUAFJo hu+gBdYhgvGG+lfYBVWOqr+mqBPCNcoApFMrd4B1hIBUdrS6yqpm+jsZjXS4dQQAqMRJ1gECUlJV vy0k4VA1Y/obQEr1c5tZRwjGW5V8vcqqfkdIAtPfANLsBOsAwfhGX1V4AlkVVT3ff2idOgi91Jsx NYAUO0zNrCMEo+LZ7CqqerQWWWcOwqnWAQCgSo3dYOsIwah4NruKqh5hnTgIzXSIdQQAqAanliVl ZIVfraKqOVKdhIPViOlvACnXw21nHSEQY7SsgqPVVVQ1538n4WDrAABQgOOtAwRijj6t4KuVVvUU P9U6cQDW1DbWEQCgAIPU2DpCIN6v4GuVVjVHqpNwkGox/Q0gAxq5PawjBKKoqh4pxI9TygBkBfur ZBRV1aOt0wagk/paRwCAAu2mVtYRgvBeBV+rpKq9f0+I28FyTH8DyIg6bl/rCEGYoSmrnQNeSVV/ plnWaQNwkHUAACgCU+DJWH0KvJKqHmWdNABdtTFjagAZsp3aW0cIQsFVzfR3/PhENYBsKXMHWkcI QsFVzUll8dvLOgAAFIkp8CSsPlh2Fd1vy/sW+sk6a86tqamcVAYgY7xfW1weK34/qM1K/VDhqPpT ijp2u1HUADLHud2tIwRh7Cp/r7CqOVIdPzZ3AFnEvisJH63y9wqr+gPrlLlXWztaRwCAEuysetYR AlBQVY+xTpl7W6s5098AMqiR29Y6QgAYVafCbtYBAKBETIHHb/wqf6+gqn/w31qnzD02dQBZtad1 gABM1w8rfTyrgqoeY50x9zqoh3UEACjR+q6zdYQArDwFXkFVM/0dt135oBaADOPO1fFbeQqcqjbA SRkAsmxX6wABqHZUPcY6Ye5tYx0AAGqgn2pbR8i9aqp6kf/EOmHOtVdHpr8BZFhjt4l1hNwbt9Lf VqvqT7TEOmHOMf0NIOuYG4zbdE1b4Rzw1ap6fDGPhRJsbR0AAGqIqo7filPgVHXi2MQBZN024jhe 3Cau8GeqOmEt+Ew1gMxr4za0jpB7k1b482pVPa6IB0Lx+quMN6MAMo9DeXH7bIU/r1LVC/zn1uly js0bQB5wKC9uVYyqP9ZS63Q5t5V1AACIAFUdtyqqmiPV8XLqZR0BACLQya1hHSHnZuv75R/XWqWq J1hny7lOasqRagC5wGVQ4va/cfVqE+CI02bWAQAgIptaB8i9Squai4rGi3ehAPKC/VncKqnqZX5S 0Q+FYvAuFEBeUNVxq6Sqp2i+dbKc62UdAAAi0kUNrSPk3P8+Wb1SVTP9Ha+2WouTygDkRC23kXWE nKtkVE1Vx4vpbwB50ss6QM5N00/lH9eiqhPUyzoAAESIo9Vx+7L8vytV9cTiHwdFYLIIQJ70sg6Q e1+X/3elqv7UOlXOcScaAHnCfQLj9lX5f1eo6kX+65IeCoXqbB0AACLUzLW2jpBzFYyqv+RWHbFq rRac/w0gVzawDpBzFYyquf1lvBhTA8gbqjpeFYyquVJZvKhqAHmzvnWAnKtgVP2Fdaaco6oB5A2j 6nh9Je8lRtUJoqoB5A1VHa8F+lESx6oTRFUDyBuqOm6/TIEzAZ4YjukAyJvWroV1hJxbpaqn+dnW iXKtjZrxUS0AucO4Ol6/nAO+vKqnWOfJufbWAQAgButaB8g5qjpRa1kHAIAYrGkdIOemSqKqE9PB OgAAxICqjtcPkqjqxLA5A8gj9m3xoqoTxQQ4gDyiquP1vSSqOjFUNYA8oqrj9YO8p6oTQ1UDyCOq Ol6L9JOWV/VC/711npyjqgHkUWvVtY6Qcz9oeVVPlbdOk2u11cY6AgDEwLk1rCPk3ApV/a11lpxr q1pcqwxALjEFHq/vtbyqv7HOknMtrQMAQEzaWgfIOUbViWluHQAAYtLMOkDOrVDVjKrjxagaQF41 tQ6Qcz+KUXVCmlsHAICYUNXxmilG1Qlpbh0AAGJCVcdrhapmVB2v5tYBACAmHKuOF6PqxDS3DgAA MWFUHa/lVb3Iz7LOknO86wSQV+zf4jVL5VU9jWuVxayFdQAAiAmj6ngtPwN8unWS3ONdJ4C8oqrj tUALfPmoGvFqaB0AAGJCVcdt5i+j6h+sc+RePesAABAT7qwVt5liVJ0INmUAeVXHOkDu/cyoOhlU NYC8oqrjNpdRdTKoagB5RVXHbQ5ngCeDqgaQV1R13MqreoZ1jtzjtDIAeUVVx618AnyWdY7cY1QN IK9qWwfIvfKqnmmdI/eoagB55RxlHa85jKqT4JggApBj7OHiNVdl0lI/xzpHzpXJOesMABAXqjpe c1QmzeJmHTFbah0AAGLEWCRe836pasRtKe+GAOTWEusAOTdHZZxUlgTG1QDyi6qO1yKVST9ZpwgA GzKA/GIPF6+FKpN+tk4RgGXWAQAgJt4zbxivxSqTOP87fmzIAPKKMXXcFlLVyaCqAeQVVR23RVR1 MqhqAHlFVcdtkcqkudYpAkBVA8grqjpujKoTssg6AADEhKqOG8eqE8LMBYC8WmwdIPcYVSeEdQwg r+ZZB8g9RtUJYR0DyCv2b3FbpjJpvnWKALApA8ir2dYBcs+rTFponSIAVDWAvGL/FjeqOiG86wSQ V1R1/KjqRLApA8grhiJxY1SdEKoaQF6xf4ubV5m0wDpFAPhcNYC8oqrjV8aVtJLAjUYB5BVDkbgx qk7IDOsAABATRtVx8yrjonBJmGYdAABi8pN1gNzzKuOuT0mYbh0AAGLC/i1uTmXcFSUJjKoB5BVV Hbc6jKqTMV3LvHUGAIgDQ5G41VaZtMw6RQCWapZ1BACIBaPquNWhqpPC+04AebTIc7WyuNVW2TLP zGwSqGoAeTRddEjcaquMI9XJoKoB5BHT3/GrQ1UnhaoGkEdc4Cl+tVVmHSEU31gHAIAYMAyJX22V 0dXJmGIdAABiwAR4/KjqxHxlHQAAYsCMYfzqUNVJYVQNII++tg4QgIYqK3PWIcLwlfhUHID8oarj 11Bl4syyRMznPEkAOTTVOkAAGqpMqmWdIhBMgQPIH6o6foyqE0RVA8ibn7isaAIYVSeIc8AB5A3n fyehgcqkOtYpAkFVA8gbTipLQkOVSXWtUwTic+sAABAxhiBJaKgyqb51ikB8Yh0AACLGBHgSGjCq Ts5nWsYnqwHkCrOFSWACPEELmCoCkDOfWQcIQjOVSfWsUwSDKXAA+UJVJ6EZo+okTbQOAAARmuu/ s44QBEbVifrUOgAARGiSOAEnCc04AzxJTIADyBOmv5PRVGVSI+sUwWBUDSBPqOpktFCZ1Ng6RTAm awGzRQByY5J1gCDUUX3HqDpBS/WxdQQAiAyj6iQ0lxhVJ+sD6wAAEBkO6iWhqcSx6mRR1QDyYrbn Zh1JaC5G1QmjqgHkxTg+qpWIFpLKpIbWOQJCVQPIi7HWAQLRRoyqEzZDX/M2FEAujLcOEIjWksqk ZtY5gvKhdQAAiASj6mSUj6qbW+cIClPgAPJhnHWAQFDVBqhqAHnwvZ9mHSEQVLWBMdYBACACjKmT 0kpUdeImaiYnlgHIPKo6KW0llZXfswMJ8RplHQEAaoyDeUkpH1WXOc4BT9I71gEAoMbetQ4QiLJf q5op8GSNsA4AADU0x3PzoWS0VG1XXtUtrLMEZYQ8R6sBZNpoLbWOEIi1JJVXdRvrLEGZrs+tIwBA jTA7mJT2kqhqExytBpBtI60DBINRtRnejwLINqo6KVS1GaoaQJZN85OtIwRjTUlUtYkxmseJZQAy iw9qJYeqNrNIb1lHAICSUdXJWWECvK11luC8ah0AAErGHiw5nAFu6GXrAABQooWeUXVSyrRG+X8l tbNOE5x3NZej1QAy6V3Nt44QjDVU20nlVd3YNbXOE5jFHK0GkFGvWAcIyLrl/y2/qdaa1nmC84p1 AAAoyWvWAQKySlWvZZ0nOBytBpBFi/3b1hEC0rH8v1S1kZGazdFqAJkzSnOtIwSEUbWxJXrTOgIA FI0PaiWJY9XmhlsHAICiUdVJYlRt7hnrAABQpAWek8qStE75f8urur11ngB9okkcrQaQKa9onnWE gLRSE/fLn8qret3SHwslY1wNIFuetg4QlI7L/7R8AryOdaYAUdUAsuVZ6wBB6bj8T+VVXcsxBZ68 l7kZJoAM+dx/ah0hKBss/1PZr39gCjx587nqD4AMedI6QGA6L/8TVW2KKXAA2cEeK1mMqlPiKesA AFCg+Z7PVCeLqk6JSRrH0WoAmfASN79MVKMVrniyvKo7WqcK1MPWAQCgIOytkrW+nPv1z8urupN1 qkCx8QPIgsX+cesIgem8wp+XV/U6qmudK0hj9QlT4ABS7yX9aB0hMBVWdS3X0TpXoB61DgAA1WIG MGkVVvWK55ohSbwAAKTdUqa/E7diJ1PV5kbpc6bAAaTaq/rBOkJwuq/w5xWqen3rXMF6zDoAAFSJ 2b+ktVVr97+/MapOAV4EANJsmeecmqR1X+lvVHUKvM0UOIAUe1nfWkcITo+V/rZCVa/Hx7WMeN1r HQEAKnWndYAAVTqqruM4Wm1lqDzjagCpNIfpbwOVVrXUzTpbsD7VSOsIAFChBzXHOkKAqOpUuss6 AABUiOnv5LVWW7fi36nqlLhPi5gCB5A6X/rXrSMEqMcqf6eqU2KGnrWOAACruUOMIpLXfZW/r1TV XVf+KxJ1t3UAAFiF9xycs7DJKn9fqZsbunWs8wVsmGbw5hVAqrykz60jBKnKql590I3kLODkDQAp c711gCCVqedqX1nJxtYJg3Yjn64GkCJT/DDrCEHaUI3cyl9Zpap7Fv5YiNxnesU6AgAsd5OWWEcI 0iarfYVRdaoMsQ4AAOUW+tusIwSq2qruqnrWGYP2iL5lChxAKtzPPaqN9FrtK6tUdW3HZ6stLdYd 1hEAQBKnlNmpdlTNFLi1m7SUcTUAc+957kxgo43Wcqt+bbWq5sQyW1M03DoCAOgq6wDB6lXB1xhV pw4vEADWvvT3W0cIVp8KvrZaVfe2Thm8F/Q+U+AATF3Ox7TMbF7B11ar6lZuXeucwWNcDcDSD/4/ 1hEC1reCr1Vwfw7G1dbu11eMqwGYuUrzrSMEa021d6t/lapOocW6zjoCgGD97G+yjhCwzSv8KlWd SjfpJ8bVAExcr1nWEQLWt8KvUtWp9LNut44AIEgL/LXWEYJWcFW35sSyFLhGixlXA0jcTfrWOkLA XCWD5bKKvsi42t5kLjEKIHFz/D+sIwRtPbVyFX29wqreXLB3CeNqAAm7ilt0mKqsfSus6i2t00LS l4yrASRqpueqDrb6V/L1Cqu6r2pb54Wki7WIcTWAxPxDM60jBK6oqm7ouGlHGkxhXA0gMd96bntp q1GlN8wqq/jLTIGnw98ZVwNIyIWaZx0hcFuqtqv4O1R1qk0RV+IFkITPPFdzsLZVpd+hqlPuIs1l XA0gdmdrsXWE4PWv9DuVVHVntbLODEnSVO6zBSB2z/ph1hGCV1bFILmSqnaun3VqlLtM3zKuBhCj Rf5M6whQDzV3lX2vrLJvbGOdGuXm6HzrCABy7Rp9Yh0BqmqAXGlVb2udGsvdrnGMqwHE5Ft/sXUE qKoj1VVU9WZqZJ0b5ZbqD9YRAOTWn/SzdQRI2q6K71Va1XUcZ4Gnx7N6jnE1gBi844daR4CkDbSO q/y7ZZV/i6PVaXIWF0MBELnF/iSxa0mDAVV+l6rOiI90hXUEALlzmT6wjgBJ1VW1q/z91HzfXIus 02O5Bhqr9V3NHwcAfvGJ76UF1iEgSfpa7UubAG/g+lpnxwrm61TrCAByZJk/jqJOiQ2rLOoqq1ra 0To9VjJcD3JQCUBErtMb1hFQbkA136+yqnewTo9VnKFZlDWACEz2f7aOgOUGVPP9Kqt6SzW0zo+V fKf/s44AIBdO1GzrCFhuu2q+X2VV13P9hXS5Uc8wrgZQQzf64dYRsFx3rVXNKcNlVX+bKfC08Tpe P1LWAGpggv+9dQSsYJdqf6KaqubEsvSZqt9aRwCQYQv9oZpnHQIr2Lnan6imqjdTC+tlwGru0/2M qwGU6FyNsY6AFdQt4PZY1VR1Lbe99VKgAqdoKmUNoATD/TXWEbCS/mpc7cWtyqr7gV2tlwIVmKmj 5SlrAEX6wR/FNb9Tpvoj1QVU9W+slwIVel5/t44AIGO8P0bfWYfAKqo/Ul3lNcB/1cN/ZL0kqECZ ntRuXBMcQMEu9n+xjoBVtNb3Kqv5BDhT4Gm1TIfpc2ayABToBX+BdQSsZucCirqgqmYKPK1m6kAt oKwBFOALf5CWWofAagqZ/i5oAnyBb8Vn8FJrsIYyCQ6gGgv81hptHQKrKdNUtYtmVF3fDbBeGlTq Lt3IuBpANU6gqFOpd0FFXVBVS7tbLw2qcLqeoqwBVOFaf5d1BFRoYIE/V8AEuDTZd7ReHlShkV5W X6bBAVToJb+rFluHQIVGqk9B++6Cqlrq5T+wXiJUobXeUmfKGsBqPvJba6Z1CFRoTU2Vi24CXNrT eolQpenaTT8wDQ5gFd/63Snq1BpYYFFT1bkxSXtoLmUNYAXz/D6abB0ClSr0SHXBE+Ded9A31kuF auyhx1SLaXAAkqSlfj89bh0ClaqnaWoS7ajaOc4CT78ndap1BACpcSZFnWoDCi7qgquaKfBsGKJL mQQHIOlSf511BFRpjyJ+tsAJcGmeb6u51kuGAlylM5kEBwJ3vT+Nm12mmtMUdYh+VN3Q7Wa9ZCjI 2bqWVygQtKH+dIo65foWUdRFVLW0r/WSoSBeZ+h6XqVAsB7xx2qZdQhUY5+ifrrgCXBptm+rBdZL h4I4Xa+TmQYHAvSsH6SF1iFQrY/VJZ5RdRO3k/WyoUBep2oII2sgOC/4fSjqDOheVFEXVdXSftZL h4J5naKhlDUQlFf83sx9ZsKgIn++iAlwaZZvy0XfM6SW7tDhTIMDgXjG76f51iFQkFHqHd+ourkb YL18KMJSHaVbGVkDQXjYD6KoM2JtbVbkvyiqqqUDrJcQRVmqE3QJZQ3k3l3+YC2yDoECDSr4Nh2/ KmoCXJrp27E5ZM5vdY3KmAgHcmuIP4WPZ2XI69q6yD1ykaPqFpwFnkHXabAWMbYGcuo6fzJFnSEd 1K/of1NkVUsHWy8lSnCv9tIcyhrIHe//xCVEM+aAEmY5i5wAl2b7NTh1IZP66Gm1YRocyJGF/hjd ax0CRRqhzYveExc9qm7CtcAzapS21RTefAO58aPfhaLOnPXUt4R/VXRVMwWeXR9rS42grIFcmOS3 0mvWIVC0A4s++1sqqaoHqrH1sqJE32qA7qSsgcx722+lidYhUIIDS/pXJVR1Q8c9trJrgY7S7/xS 6hrIsIf8jppmHQIl2FCblXTGUAlVLR1uvbSokX9pd82krIFMWuov8Adzcm9GHVTivyv6DHBJWubX 1dfWS4wa2VCPqyvngwMZM8MfquesQ6Bk49U9uVF1mTvUenlRQxO1uR5nZA1kyhjfl6LOsM1KLOoS q1o6wnqJUWOzta8u8cuoayAjhvp++sI6BGqg9IPHJU2AS1Jv/571UiMCO+surcFEOJByi/zZut46 BGqktr5Su2RH1dJg66VGJJ5XTz3DyBpItS/9AIo683YuuahrUNWHqI71ciMS07SHzvWLqWsgpe7w PfW2dQjUWE0+O1XyBLg0yD9uveSITB/dr/WZCAdS5md/iu6xDoEINNJ3apz8qFo61nrJEaFR2kz3 MbIGUmWE34yizon9a1DUNarq3bSW9bIjQj/rUJ3gZ1PXQCos8Rf6rTXJOgYiUrNLh9Wgqmu7I62X HRG7RRtpOGUNmPvQb6ULtMQ6BiLSQTvU6N/XoKql48TBzbyZol11oJ9BXQNmFvvL/OYaZR0DETpS ZTWqyxqcViZJ2/tXrNcAYtBO12tf3ocBBsb4Y8VVK/LFaaI2qNEetUajak4ty6vvtJ8O9NMYWwOJ WuDP9X0o6twZUMOirnFV76cW1usAMXlIG+khyhpIzCt+E12mpdYxELljavwINazqBo6rgefXDzpQ O/uPqGsgdt/6I/wOmmgdAzFopn1r/Bg1rGrpJE4ty7UX1Etn+J+payA2i/01vqvuEi+zfDpMDWtc kzU8rUySdvAvW68JxGwt/UOD5XhXBkTuZX+axluHQIxGa7Ma7ztrPKqWTrZeD4jdNzpSW+pd3vQD kZrqj/A7UNS5tnEERR1JVQ/SmtbrAgl4V/10qv+RugYiMcuf5zfUXdYxELPjInmUCKq6josmCtJu qW5QZ13u51PXQI0s8Ff69fUPzbMOgpg1rOEFRX8VwbFq6Su/Hh8wCEgb/U5nqh5HroESLPMP6xx9 YR0DiThGt0Wyp4xgVC2t7fa0XRtI1DSdqx661y9jdA0U6Um/iQ6kqINxYkSPE0lVS6ebrQjYmKTD tKmGUdZAwZ732/g9Nc46BhLTW5tHNPsYUVVv73rarQ0Y+VB7qb9/mboGquH9k35Lv4vesA6CRJ0U 2SNFVNWMq0P1lnZQbz/UL6WwgQp5P8xvoT01wjoIEtZMh0T2WJFV9WFqZbIyYO89Hamuutkvpq6B lSzzw3wf7aWR1kFg4Ag1iuzk28iquoE73mZtIBU+04nqrOv8POoakCTN8zf5btqL+2QFK7rp74g+ rPWLqX49LU5+bSBVWutUna6WfJALQfvO36TrNMM6Bgxtq1cj3A9GWNXSgf6hxFeHjbrqpx3VWG/p Bc20DpM6jXW4TtVG1DWCNNJfrYcYtgTvAR2Y1qp+x2+V+OpIltNG2lk7advlxyCW+QkaqZF6Vx/w 4lzJAJ2qQapNYSMYS/1jukpvWsdACqytzyPd+0Va1dI2Pq8fRlhLO2ln7aR2la78hf49Pa/nNEJL rMOmRnudqOOrWGdAXkz2t+l2TbWOgZT4h86NdL8XcVU/7gcluTYS0FjbaWftpB4Fr/af/Et6TsN4 0Zarq/10qvpT18ipxX6YbtFzWmYdBKnRUFPUKs1V7X0PTUh0lcSllnppJ+2kbUq81vUy/5Ye0gP6 3npBUqKLDtZR6khhI1e+9vfoen1lHQMpc6JuinhfF3FVS0N8lCeoW+isnbSztlfzCFb1Ev+C7tZ/ tdB6oVKhlnbSkRqkBhQ2Mu9n/6ju0kvi04lYldPYIuZhC3zMqDe0hb6jvktslUSplXbQTtpZ60Ve JLP8nbpaX1ovYEo00146QjvKUdjIpKX+ZQ3VI5prHQQptbOei3zvFnlVS3/z5yeyOqK1pd5UWYzl sdQ/qX/rJevFTI0NdbgOUFfqGhmyzL+ue/Vf/WgdBKk2THtkoaqn+46ZfL95u46OvTje8hfpWesF TZGe2l8HqBuFjZTzfqT+q/s5Ko1qddbHMQz7Yqhq6Sx/dfzrI3LNNFZrJ1Aa7/qL9BRHuFawkQ6g sJFSS/yrelSP8YkOFOha/TaGfVksVf21X1+LYl8h0RukRxOqixH+TL1jvbgps5EO0F7qRWEjJeb5 5/SonmS6G0VopckR3qTjf2Kpaul4f2vMKyQecRxjqJj39+pcfW29wKnTQbtroHZSQyobZqb64XpS wzXPOggy5y/6Wyz7rpiq+jPfVUtjXSHxWE/jE/wo0Tx/uS7TfOuFTqH6GqA9NJDPYSNRC/3rGq7h GmsdBBnVQF+qbZaqWjrE3x/jConPX3VhovUw0R+n160XOrV6aKB2Un/G2IjZp364ntUrmTwhFulx km6MaV8VW1V/6Htl8tSp+hqvTokWwzJ/o87VHOsFT7F62ko7agdtzs0/ELHJ/lW9olf0hXUQ5EAt TVDnrFW1tJcfFttjx2kPDUu8ECb74/SC9YKnXhNtpx21ozbi8imooUn+Vb2qVzXZOghyZD/9N7Y9 U4xVPcJvGdtjxyu5k8v+Z5n/p/7CPbkK0kb9tbX6qbfqUtkowhI/TiP0ul7ho1eIwdvaMotVLe3u n4nx0eOzvsapvkEJvOUP0RTrhc+Q+uqr/uqvfmpJZaNS3n9Wfk/59zmJE7HZRq/FuB+KtaqzO64+ V/8w2fnP9MfoMeuFzxynbtpKm6uPeqoOpY1y3/qRelcjNVIzraMgAE9qYFarOrvj6tp6S31Ndvre X6zzM3lCXhrUUy/1UR/1UTfVorQDtNR/pg81Rh9qDFctQIJ66b1Yz6GJuaqzO67uoZFmN2t82B/J h0ZqqJE2VR/1VE91U2NKO+d+8h/qA32oDzSOy5bAxEPaP9b9TMxVnd1xtXSk7jDbxY/xe3PUOiJO HdWj/H/dTc5BQBwW+4kap3Eaqw+4wSyMddO4WO/MmEBVZ3dcLd2kE8127N/73fWe9QrInVpaTz3V XT3VXV04fzxzlvkvNFYf6UN9pI+12DoOUG6oBse8N4m9qqWB/unYnyMedfSgBpntzn/2e+sV61WQ Y7W1gXqoqzZSV3VTPWo7tb7yH2msxmucPmJ6GynUSZ/EfnmmBKr6Pd8ns6dJ1dWj2t1sJ77AH8L5 4ImopU7qoW7qoW7qpgZupG+rdSlvQ9P9L+U8TuM1yzoMUKWbdXzse4sEqlo6wP83gWeJR139U6eb XR1rqT9Bt1uvgsCUaT0NVludGPOxJ6zq5+Wj53H63joMUKAOmpTAwbREqnqC75nJ+2z9al/dqhZG u23vT9YQ6xUQmHr6houqGLjbH5HZ+TeE6xqdnsDeoiyJRenmBifxNLF5RD30hNE+xLkbdZz1CgjM 3hS1icPdJdYRgCK10/GJPE8iVS1doHrJPFFMvtXeOtBPN6lr527WCdYrICjHWAcI1rnudOsIQFHO Tej6G4lMgEvSb/31CT1TfNrpRqMzwpf5I3W39eIHooO+5EpnZpb6vfWUdQigQO31WULXakhoVC39 nxom9VSx+U776Ag/12BsXebu0D7Wix+IoyhqQ7XcfdrIOgRQoD8ldlGlxEbV0v/5fByJ6qb7tInB znye31HvWC987jlN1AZUtalJfnP9aB0CqNba+jSxKzIkNqqW/qg2yT1ZjCZoS13nfeJj64buSXW1 Xvjc24aiNre+e0C1rEMA1fq/BC+dlGBVN3N/Tu7JYrVAp2lf/Zx4Wbdyz2gt64XPOU4pS4Od3AXW EYBqdNTRCT5bghPg0mLfQ58m+Hzx6qxH1SPxEdj7fmsurhibxvqW+3Clgvf76HHrEEAVbtFxCe4r EhxVS3XcxUk+Xcw+VT89nvjIelN3m+iSuBxEUaeEc7dpbesQQKU66chEny/RqpYO0BbJPmGsftY+ Ot8vS7iuD3bnWS94biU5oYWqtXJ3Jb17Agp2vuok+rY+0QlwSXrdb5vwM8ZtX92d0Ifgf+X9QXrI erFzaEN9bHa1d1TkXH+ZdQSgAj01JuF7BCT+tnUbt1fSTxmzR7SLZiT6jse52zgXPAbHUNQp8zdt Zh0BqMAlid/MJ/FRtTTJ99DCxJ81XuvraW2Y6K9uvN9Cc60XO1dqa7LWoqpTZpzfTIutQwAr2Vqv J76nMDgYtL47JfknjdkkbaORib7r6eFusF7onPkNRZ1CG7nfWUcAVnGpwXMajKqlWb6zphs8b7wa 6XHtmOjO/nh/q/VC58jD2peqTqH5vqcmWYcAlttbjxnsKUyqWrrBn2ryvPFqqEf0mwR/ifP9VvrA eqFzoo2+TuD28CjFcL+rdQSgXC2N0UYGewqjT0OcqJ42TxyredpLDyf43qeBu1cNrBc6Jw6jqFPr N+4Q6whAucEmRW02qpae878xeuZ41dZdOjjBX+W1njv8RuEDbUxVp9b3vptmWocAVE+faF2TPYXZ NQZ2cXtYPXWslmiwHknw/c9vxeRgzfWmqFNtDWdxIg+wqtONitpwVC195jfK3Ye2flFHD2vPxH6h P/iN9b31Imfc9TqFqk61pX4TjbcOgcC11mdqZrSnMLxy3wbubLsnj9ViHagXEnsP1NZdb73AGVdf HAtNu1ru79YRELzzzYradFQtzfXd9JXh88epkYarf2K/1gM9Fxot3cG6jzF1BvTzb1tHQMC66sOE r/u9ItPr4Tdyl1s+fazmaqDGJvY+6Aa1tV7gDOMmHdnA9cBh6XLDojYeVUvSrn64cYL4dNDb6pDQ L/def5j14mZUB32pWoyqM2E3/6x1BARqgF423UuY32XuX6pjHSE2X2t3/ZTQe6FD3T7Wi5tRR1PU mXGZ/Q4LQSrTFeYJjHV3p1lHiNFYHaQlCZX1dWpuvbgZ5HSUdQQUbGO3v3UEBOkI9TZ+Q28+AS79 7LvpG+sQMTpd1yT0S77dH2u9sJljPa2F4ozyfa0jIDiN9InaG+8nzEfVUlN3lXWEWP1btyT0fugY l88rwMWJU8qypY/bxjoCgnOeeVGnYlQtSXv4p6wjxKiOXtQ2ifyqJ/uemm29uBnSVN+qofmLEMV4 1O9rHQFB6aTxqm++l0jBqFqS/p3r204s1kGamsh7onW5AGNRDqKoM2cvdbKOgKBclYKiTk1Vd3J/ to4Qq291gBYnUtYnazfrhc0Qju1nTy13hnUEBGRX7ZWCok7NBLi0yG+qj6xDxOqPuiyRXznXBC/U RhqbihchijPbr6NZ1iEQhLr6UF1SsZdIyahaqutuUCrWSGwu11OJvC9q64ZYL2pGMKbOpibuGOsI CMQZKSnqFI2qJelof4d1hFi10vtaO5Ff/In+ZuuFTb16mqpWKXkZojhj/cbWERCANfWJmqRkH5Ga UbUkXak1rCPEaoYO0dJE3htdpZ7WC5t6gyjqzOrpellHQAAuTU1Rp6yqW7prrCPE7E39M5Hnaege UhPrhU05pr+z7AjrAMi9rTXYOsIKUjUBLkn7+MesI8Sqjt5Sn0TeqT3oD7Je2BTrqEkqS807ZhTr B99eS6xDIMdqa5Q2SdEeIlWjakm6Ts2sI8RqsY7WwkTeHx3ofmu9sCl2DEWdaW3dLtYRkGtnpaqo U1jV7d0/rCPEbJz+ktAz/UsDrBc2pcp0pHUE1FCaJieRN2vrr9YRVpG6CXBpmR+g161DxKpMb2mL RN6xTfN9Ndl6cVNoNz2dqnfMKN58vwYX0UVMHtWglO0hUjeqlsrcLapvHSJWy3R8Qtcua+MeVyPr xU2h46wDoMYaMAWOmOyRuqJOZVVLXdzF1hFiNlaXJ/RMm7ih6fwlG2qrPa0jIAJ7WAdALjXUtdYR KpDSvfhZ2s46Qsz+po8TOvawr0vmA2LZcaTqpO49M4o3MK27L2TaX9QxhfuHFB6r/sUk30tzrEPE anu9KJfQJnGWv9p6cVNkgrqm8KWI4m3l37GOgJzprvdVN4X7h9S+LV3fJTVFbOVl3Z/Yc12pA6wX NzW2pqhzgylwRKtMt6SyqFNc1dKJyvtpI+dobkKTGmVuqLa3XtyUONE6ACJDVSNap6pfKos6xRPg kvS175nzm939WRcltmHM8b/RW9YLbK6Vvk7FjeIRjXX8V9YRkBvraFyKrvq9shSPqqUOub8m+OX6 NLH3So3dM+prvcDmjqKoc2WAdQDkyHWpLeqUV7V0hBtkHSFWC3VOgs/W1D2jsG8e6HSCdQREahvr AMiNw7Vnaos65RPgkjTN99T31iFi9bq2TnADmel31bvWi2xmR72Q4hcjivex72YdAbnQWh+pTYr3 DikfVUtt3BDrCDH7vXyC75dauOfUz3qRzXBKWd50UVvrCMiFa1Nd1Bmoamlvd6h1hFiN0BOJPl8z NzzQs8HbaZB1BETMuf7WEZADA3Vwqos6E1UtXae1rCPE6jwtTfQ4RGP3lPa2XmgDx3CVshza2joA Mq+5brKOUK1MVHULd6vyvI/9SEMTfsYG7mGFdjfrMh1vHQEx4MQy1NTV6pD6gkn9aWW/OsHfYh0h Rp30scGI7wp/jpZZL3pidtdTqX85oniLfWMtsg6BDNtDwzKwZ8jEqFqSrlRn6wgx+lx3Gzzr790D Ad0ik1PK8qmO624dARnWUjdbRyhIZqq6ibtP9axDxOjvWmIwwbG/e0udrBc9ER000DoCYhL2tQJQ M9dqzQyMqTNU1VJv9w/rCDGapHtMnndjNzL311qXpONVKxMvSBRvE+sAyKy9dGhG9gsZqmrpzFyP jC6O6TzwT/0e/vUqHrmle1rnZWtDKFptHWsdAbGhqlGa1hmZ/JYyVtXO/SfHH9v6TI/E8Kjv+/56 SjvoUl/5hVZqub+757Sm9QqI0d5qn5H3zigeE+AozXVaIzP7hcycAf6rl/1OuT1rua/ejXjDGeF3 XX5vst11j5pX8fjT/FF62noVxKKWxmijzLwkUbz2/hvrCMicg3R/hvYKmRpVS9L27jzrCLEZqVci fef0qd9jhZuIPq0tNbGKx2/jntRNamq9EmLwJ4o65zayDoDM6aAbrSMUJXNVLZ2v/F5K8PIIH2u6 303TV/rKJ9pCz1VR1s6d6Mbm7iSzfXWhdQTEbAPrAMiYMt2pFpl6A5/Bqq7t7lUL6xAxeUbjIxtX /0mTVvvaLO2hB6p8hnXcs7pVraxXRGQO1v0qy9RLEsVb3zoAMuYs7ZCxvUIGq1pax91qHSEmXv+O 7LEq/tUu1mG6vcqydu5YN1EnZnPTWElt/V33ct3vAFDVKMbG+rt1hKJl7rSyX53is3WkoVCN9HWV J38VbobvusoE+K+cbtIJ1T7HKH+a3rFeHTXQV0O0KTUdhHG+p3UEZEY9jVTPzO0ZMjt0ulL5fHHO 1X8ieqRW7rJKvuN1qp6t9j1aH/eWHlY36xVSkmb6t96mqIPRKde380G0LslgUWd4VC195PtqnnWI GGygTyI6uur9Lnqhku811ZsFnRe91N+hC/WV9UopQjudqZPULIMvRpSOj2uhMDvquUyevZLZUbXU 3V1jHSEWn+nZiB7JubvVrpLv/VzgLSFruWPdZ7pNG1qvlkKWV1vrVn2pcxxFHZowrmSPmmqlOzNZ 1Jmuauk4d6h1hFhEd2rZGu5e1arke/0KfpS67hg3QQ+oj/F6qUonna9P9bo71tXL5AsRNdPBOgAy wOn2zF63MMMT4JI012+lsdYhIuc0Vj0i26Au8n+t4Kvt9HEJk8Qj/A16UAtM186qOmhfHah+chl9 CSIKZ/urrCMg9U7TvzO7l8j0qFpq5B5Wc+sQkfO6OsJH+7MGVfDVf5V0NHcLd6f7Slek5AYJ6+os vakpusb1dxR12PJ8BXtEo1ekl5hKWsZH1ZI0zO+t7C/FyupritpEVj6z/VYav9JX9tdDNXz0cf5u 3acpJmuntvprN+2eyfM4EY+7/WDrCEi1xhqlLhneY+SgqqW/+IutI0TuQv01ws3qM7+5Zi7/25oa q1YRPLr372uYntD7Cb1VcuquARqgnSL65Dny4wW/s3UEpNodOjLTe41cVPUyPzCys6bTYg1NVpQn SA33A7W0/M9PafdIN9qp/iW9rFf1eUzrop56aXNto+3UNtMvNsRnvOeWHajcYbo74/uOXFS19KPv oy+sQ0Tsdh0d6cZ1uf+jJOlI3RHTRjvFv63RGq33VrifV+maq4e6a1Ntro25OCiq8aPPz3XrEbUN 9J6aZHwfkpOqlt73/TXfOkSkeuqDSM9q9v4w3ad2Gq+WMW+03k/WRE3Ux/pUX+ubAou7TG21rjpq XXXUBuqhtTL+0kKSvK+nxdYhkEr19KZ6Z35vkpuqlu7wR1tHiNjj2ivSDWye31p/1r6Jb7Tz/VTN 0GzN1GzNXuGjXk1VS81VW23UWq3Vmo9boQba+mnWEZBKN+qkHOxZclTV0sn+JusIkdpIH0R8ZZ2Z 3v4ere/4ltrQPAXypoufaB0BKZT9o9S/yFVVL/LbZfpeUKsbqsEp2My+9deptnppG7WOIM0+/k09 qc1TsFzIky38u9YRkDrd9a4a5WJfk6uqlr72vfWDdYgIddIE1TXe0D7zAzRVklSmPjpEh2iNGiT6 2q+nJWqkh7RbxMs12n+gXdQhFy9LFG9XP9w6AlKmsd5Vt5zsETJ+tbJVdXAPqLZ1iAh9rluME0z2 25cXtbRM7+osddAe/iG/uMT3eLdqiaS52ltDI3uXuMzf6bv6PjpWG+jafL33RMGaWwdA6tycm6LO XVVLA9yl1hEidbHmGpbPfL+vvl7la0v0lA7UurrAf1N0ssX+17cei3WU/hnJkn3qt9VR+kSStFCn 6/feU9cBamEdAClzqg7JTVHnsKqls3WIdYQIfSe7W316f7zeq+R73+pCddRB/pWiivFB/e+uwl7n 6Ey/rEa16v2/fS+9udLXrtQ5ZmsMdppbB0Cq9NWV1hEilcOqdu52bWEdIkKXa4bRKPEfuqfK7y/W g9pe3XW1n1lgwlXvfnSNDtOikpdujj9IZ2jeal+/XBcxrg5OY+sASJHWeijSqz3ay2FVS/XdY1rH OkRkZulPJs870V9Q0M99rLPUXkf7n6utx9f86NW+dr921+ySivVTv5UequR7f9WllHVgGloHQGrU 1gNaN1dFndOqltq5x3P0Lvs2jTQong3dmyr0usq1tJuaVvvSuKHCr76oAfqu6OV7zPfVuCq+/ydd TFkHpYF1AKTGZdohZ0Wd26qWerm7c7Nwy3SqanZMtzR93Wj9RXWq/bnOelsHVvvS+NE/Vsl33lN/ fVbE8i3xf/T76qdqfuoJzaOsA0JV4xeH6OzcFXWOq1ra211iHSEyIysZkcatrvube1e9qvyZgXpX GxXw0nhaCyv93ufqr1EFF+syvVXtbTd31ktqmMMXLCrDBDgkqZdutY4QixxXtXSOO9I6QmTO02Sj MWIv964uUr1Kvnu6Hi/w7tEvV/ndH7S9nitwCeu6h7V2lT9xsJ5UY4o6KIyqIbXSIzl9i57rqpaG aGvrCBGZrRPNnruO+7Mbr0Grfb2WrtU1rlaBL4zqrtA8R3vqngLLeg33aBW75t/qHvNrvCFpVDVq 6T6tl9NXfs6rup57ROtZh4jIcP3H8Njr+u5R98JKU+Ft9bR+W8TLYmm1P7FIg3VlgcvY292qip/8 b7rWRXuTE2QBVY1LtHNuX/k5r2qpjRumptYhInKGPjc9UWpH956e1u6qJWknjdEuRb0sOhfwM2Wq W/DjHer+uNrXaukm/SW3L1ZUJU8XFEYpDtMfrCPEKGe366jY036vAsZ0WbCVXlNt8yr6zv+kLkWn eMf317Iqf6Kx7tMexYzT/V56eoW/19M92s987cDGe763dQQY2kKvqH6OX/25H1VL0u7uCusIEXlb f7eOIKmdK76opS3dBVV+v61eKaqopVruXnVZ/remepqiDhij6pB10KO5LupAqlo60x1vHSEiF+ml zE6E/MVdqMpeTR31unoX/VJr5h4vv/bzGno5h5c9QOGo6nA11ONaM+ev/kCqWrpe21tHiMRSHari 72iVFn91w7RGBV/voze1YUkvtS7uXtXSenpDm+X8pYqqUdWhcrozgFd/MFVdxz2sHtYhIvG9DlKp d4u2N9BN1LkrnehXptP0utYq+aW2m7tdb2qD3L9UUTWqOlQXaP8AXv1BnFb2q698v9XuvpxNJ+uG TG+cP/sH9Yw+kbSFTlOvTC8L0mGKX9c6AgwcpPvkAtiDBFXV0ji/jWZZh4jE9TolgM0TKNTXfu2a Pwgypq9eVYMg9oTBTID/YiP3mOpbh4jEGXoxrHdZQJWW1fwhkDHr6olAijq4qpa2cw+olnWICCzR vhpDWQPlqOrQNNUwtQukqAOsamkvd611hEj8rIH6krIGJKnae60hX+rov+oZTFEHWdXSyRVckjKL vtHumsEeChBVHRanm3N8ve+KBFnV0qXKx+0xJ2hHTWcfBTABHpS/6KigijrYqnbuFv3GOkQkPtC2 +o6yRvCo6nAcrAusIyQu0KqW6riHtJl1iEhM0Pb6lrJG4HgJhGIb3RHEJ6lXFmxVS03cUzm5l/XH 2omRNQLHCyAMPfS46gVX1EFXtdTOPa+21iEi8ZEGZPjK4EDNMQEegvZ6Wi0CLOrAq1pa3z2uhtYh IvGJttXHlDWCxcaffy31nNYJsqiDr2ppS/eA6liHiMQk9dML7K8QKEbVeddQw9Q90KKmqiXt4e7L xfXLpJnaTddR1ggSVZ1vtXS3+gVb1FS1JGk/d5vysQ0s0Wk60S+hrhEcNvo8cxqiffKxky4RVS1J OtJdYx0hMjdrD/3EfguBYVSdZ3/XsUEXNVW93GnuIusIkRmuLfQeZY2gsMHn12n6U+BFTVWv4M/u XOsIkflEW+gCv4y9F4Kx1DoAYnK4rraOkAJU9Qr+4c6yjhCZJbpQO2sqZY1ALLEOgFjsrf+oLPgx NVW9iit1rHWECL2kXnqCskYQGFXn0Y66X7UpalHVq3BuiPazDhGh6RqkE/yP1DVyj6rOn356XPUp aklU9Wpqufs00DpEhLxuUWddw3Fr5BwT4HnTU8PUiKIuR1Wvpo57SAOsQ0TqR52pLTSSskaOMarO lw30nFpS1MtR1RVo4J7Q5tYhIjZK/XSW/5m6Rk5R1Xmyjl5SO4p6BVR1hZq4Z7SxdYiILdHV6qob /SLqGjlEVedHB72ktSnqlVDVlWjpnlMX6xCR+1anaEPd6hdT18gZjlXnxZp6UetT1Kugqiu1hntV 3a1DxGCyjldn3cyVwpErjKrzoa2e14YU9Wqo6iqs4V5QV+sQsZisE7WR7mYyHLlBVedBG72oHhR1 BajqKq3pXtVG1iFi8okGax2d67+irpEDTIBnX3M9o40o6gpR1dVo617MbVlL3+sybaAD/QvUNTKO UXXWNdPz6k1RV4Kqrla+y1papIe0s3r72zy3zkR2UdXZ1kzPqw9FXSmqugBt3Uu5++jWqt7TcVpD e/qhfg6FjQxiAjzLmmu4+lLUVaCqC9LGvaLe1iFit1BP6ki11Z7+IU44Q8Ywqs6uFhquLSjqKlHV BWrhnlUv6xCJmK8ndaDW0uH+Lv89hY2MoKqzqo1e1uYUdTWo6oK1di+rr3WIxMzQPTpC7bS+P8O/ 4BdS2Ug5JsCzqa1e1CYUdbUc++Bi/Oh31nvWIQw00gBtqS20uZrxokIq/cv/zjoCiramXlQ39ikF qG0dIFtauhf9b/SudYzEzdVTekqS1Mn3V2/1Vl/V4wWGFGFUnT3t9AJFXSCqukjN3XC/i0ZaxzDz uT7XXZLqqYvvom7qpq7qoga83GBsmXUAFGltvaQN2HMUiKouWnP3XJAj65Ut1If6sPzPZVrXd9Ha aq+11V4d1IFpciSOUXW2dNbzWpf9RMGo6hI0d8/7vfSqdYzUWKYv9MVKX2nk11ErNV/pf81UTw1X /L8CX6YL/TxJ0mwtkbRUP0uS5mmhJOmnFUZTM5f/6defkqQNtB87hABwBniWbKzh3I+6KFR1SZq6 Z/wB5Udvsbq5mlD9D5Wf0dikko1wZvWPUJCB2s96dSABVHV2bKmn1YKiLgpVXaIG7jF/nO60jpED s2N+fD7jEAYmwLNigJ5QE4q6SHyuumS13X90hnUIVIuqDgOj6mzYQ89Q1CWgqmvAuat0jnUIVINd eBj4PWfBYD2q+hR1CajqGnHuUnep2PLSjFF1GPg9p9+pukO12V2WhKqusXPcjazGFGMXHgY+V512 5+g6V0ZRl4iOicCJ7h7VsQ6BSrALDwO/5zSrpZt0KTVdA1R1JA52j6qBdQhUiFF1GPg9p1c93a8T KeoaoaojMtA9q6bWIVABRlth4PecVs31vPanqGuIqo7Mtu4ltbEOgdWwCw8Do+p0WlOvaBuKusao 6gj1dq+pg3UIrIJdeBh4S5ZG3fQOd6OOBFUdqa7udW1gHQIrYRceBt6SpU9/vaF1KOpIUNUR6+je UT/rEFgBu/Aw8JYsbfbT82pJUUeEqo5cK/ec9rAOgeXYhYeBt2Tpcroe5D72EaKqY9DIPaaTrEOg HFUdBn7P6VFLN+gaLncSKao6FrXcje5qLjiaCoy2wsDvOS0a63GdzM4vYlR1bM5wd3ANsxRgtBUG fs/psJZe00CKOnJUdYyOcM9wWRRzjLbCwO85DTbWO9qUoo4BVR2rHd0bfNLaGKOtMPB7tre7Xtfa FHUsqOqY9XSvq5t1iKCxCw8Do2prp2uYmlLUMaGqY9fRvaGtrUMEjKoOA1Vtqb7u4pzvWFHVCWjp XtDB1iGCxS48DLwls9Naw3U4NR0rqjoR9dy9+qN1iECxCw8Db8msbKxR2paijhlVnRDnLnNXs7oN UNVh4PdsY6Be17oUdezojgSd4e5VfesQwVlqHQCJYFSdPKe/cCpZQqjqRB3kXlE76xCBYbQVBn7P SWuih/Q35yjqRFDVCdvCjVJv6xBBYRceBkbVydpQb2s/ajoxVHXi2rtXtY91iIBQ1WHg95ykPTRC PSjqBFHVBhq5h3U+N/NICLvwMDCqTorTOXpczdmBJYqqNuHcBe5eNbCOEQSqOgz8npPRVI/oUi52 kjiq2szB7gW1tQ4RAM4AB6LSU6M1iJo2QFUb6ufeVS/rELnHaCsM9Ef8jtQ72oAVbYKqNrWue1vH WIfIOao6DByrjld9Xa07XEOK2ghVbay+u80NUV3rGDlGVYeBDolTZ72jM1jFhqjqFDjBvaQ1rUPk FlUN1MzeelebUNSmqOpU6O9GqZ91iJyiqsNAk8Sjti7Vo3w0yxxVnRJruZd1snWIXOIM8DDQJXFY R6/rHC4emgJUdWrUdTe4u9TQOkbuMKoGSjNI72tLajoVqOpUOdy9oc7WIXKGqg4DjRKt+rpej7qW rNaUoKpTZlM3WodYh8gVqhooVle9o1Oo6RShqlOnibvX3clEeGSoaqA4gzWKM75ThqpOpSPcSPWw DpETXp6rYwSAZolGU92roa4RqzNlqOqU6u7e1qHWIXKCc8BDQLdEoZ8+0CGsyhSiqlOribvH3czd tyLAFDhQvTr6m15VR4o6lajqVDvejWAivMbY94SA33LNdNGb+ourzWpMKao65Xq6UTqHX1ONsPaA qg3WKPWlplOMvVjq1XeXume1lnUMALnUVk9oqGtMUacaVZ0JO7sx2ts6RGaxDwoBv+XS7KYx2pOV l3pUdUa0cY+5m/i0NVAJ2qZ4TXWbnnZrsuoygKrOkBPdaPW2DpFBZeyKgNXsorE6htdGRlDVmdLV vaU/qZZ1DCB16JxiNNXNelbrsNIyg6rOmLruEveWulnHyBD2RsDKdtZYHc+tLTOFqs6gzd17Ooex dYHYHwH/01RDNJzxdOZQ1ZlU313q3mRsDSxH9xRiZ43VCYynM4iqzqwt3Gj9jrF1tdgrhYHfc3Va 6FbG05lFVWdYA3eFe0NdrWOkHHsmQNpDH+pYxtOZRVVn3JbuPf1eta1jpBj7pjDwe65cBz2uYa4D qyjDqOrMa+Aud6O0uXWM1GL/hJA5naDx2ouXQcZR1bmwiXtbQ9TYOgaAVOmsFzXENaWoM4+qzoky d4Ibq92sY6QQe6kw8HteVX1doLHanhWTC1R1jnR0T7sn1N46Rsqwp0KIttd7Ot/VY/PPCao6Z/Z0 43Q6v9YVsK8KA7/n/1lTd+ol141VkiPs03OnubvGvaye1jFSg/1VGPg9/6K2fqeJOoLVkTNUdS5t 697T1WpmHSMV2GeFwVsHSIWt9Z6ucI3Z6HOHqs6p2u4M97EGU1QIBLuyNvqPXlNPXvK5xPadY+3c UDdCfa1jGGPPFYawR9W1dYI+0lFcjSy3qOqc6+ve0jVBT4Wz7wpDyLuyXfShhrjWbOo5FvL2HYja 7nT3iY4O9lddxzoAEKP19ZiGc7Z37oW6/w7MGu52N1LbWccwQVUjrxrqfI3T3tR0AKjqYGzmXnFP aH3rGImjqpFHTgdogi5w9SnqIFDVQdnTTdDVam4dI1FUdRjCaqwt9ZoedNx7OhxUdWDquDPcJJ0e 0G0zqWrky4Z6UG9pa2o6KFR1gFq6a9wY7WodIyFUdRjCaK62ul7jdAAfygoOVR2oHu4Z96a2sY6R AKoa+dBA52iiTnF1qOkAUdUB6+de1cPqah0jZlR1GPLdX2U6UhN1qWuW78VEpajqoDm3rxuvB9XR OkiM6loHAGpoJ43SHa4DNR0wqjp4Ze4A94mGqK11kJgwqg5DXnusn17V827TvC4eCkRVQ1Jdd4L7 ROeqkXWQGIRzrnvY8thlfTRcb7pt87hoKBJVjXLN3T/c5zpbDa2DRKyedQCgBN30X72rXahpSKKq sZK27ko3SWeqgXWQCNW3DoBE5KnTOup2jdV+fCQLy1HVWEU7d5X7Uufkpq7zNkuAfFtHV+tjHe1q UdNYAVWNCrR1l7ovdU4uRqR5ecuB/FtHV2uiznD1qGmsgqpGJdq6S91EnZz5us56fhQm6+22nm7R Z9Q0KkFVowpruxvcF/qDmlgHqQFG1WHI8q5sPd2qT3Qc1yFDpbK8fSMR7dw/3Ze6QK2sg5SIqg5D Vs9J2FC36xMdS02jSlQ1CtDSne8m62p1sA5SgqzuwlGcxtYBSrCx7tRHOpqaRrWoahSokTvDTdKd 2tA6SJEYVYcha5fv6a8nNEZHcKY3CkJVowh13RFuvO5XX+sgReC0sjBk58K4TgP1ht5we/K5aRSM qkaRaruD3LvuVe2dkY2HUXUY1rcOUJDaOkTv60nXn5JGUbKxt0XqbOsecxN1egaOBKc/IaLQyTpA tZrodH2me90m1DSK5rx1AmTadH+DrtcP1jGq8KJ2YNcYAO+babZ1iEqtq9N1nJqyJaJEjKpRI63d X91k3aJNrINUqr11ACTCuS2tI1Ric92vz3S2o6hROqoaNVbfHefGuFd1QCpvOElVh6K/dYDVlGkf va4R7iBXm5pGjTABjghN9TfpFn1vHWMFHfQVO8lAvOoHWEdYQUsdq5O1HlsfIkFVI2KL/OO6WS9Y xyh3mO5mZxmIZX4dTbUOIUnqqpN0nBqx5SEyTIAjYnXdAe55966OTMXHpLaxDoDElLn9rCOojg7S 65rgznAUNaLEqBqxmeXv0s0aZ5igjqaoHbvMYIzxm8luj9ZOJ+hErcX2hhhQ1YjZaH+z7tFck+fe Xw+x4wzKbv5Zg2ct0w46QXurLlsbYkJVIwFW4+tXtB07z6C87rdN+BnX1NE6Vp3YzhArqhqJecvf qv8meJmKQXqUHWhwDvH3J/RMZdpFJ2gPcV8sxI+qRqLm+of1H72awBHFBhqr9dmJBuc7310zY3+W 9jpax2ldti8khKqGgS/9nbpTX8T6HEM1mB1pkB71+8X4VrC+BulI7SxuXokkUdUw4v2rukMPa04s j/47XcGuNFh/8+fH8rhb6UgdpOZsWUgcVQ1Tc/wjulcvaGmkj3qWrhT3Ag6X92fo2kgfsYMG60h1 YZuCEaoaKfC9f0D3akQkj1VbF+scdqnB+6u/KJLHaahBOlI7qYxtCoaoaqTGFH+f7tDHNXqMTrpD 27BThaRH/fGaUYN/X6atdIQO5taVSAGqGikz2t+rB/V1Cf+ytX6v09SQHSvKTfVn6uGSTjHrosE6 nDO8kRpUNVLI+/f1hIbp/YJ3s5voCB2vJuxasYqR/gI9q2UF/3xn7af91IctCalCVSPFfvRv6229 rY/0XSU/0VL9tLX2UA92rajUV/4OPaH3qzx5saW21rbaRT3ZkpBCVDUyYbb/VJM1U7M0S3VUV3XV Vh3VUWtxpjcKNMu/oY80SVM0Q0v0k5qoqZpqLW2g9dVV3dmSkGL/D9gmLVJaMYIfAAAAJXRFWHRk YXRlOmNyZWF0ZQAyMDIxLTAzLTI1VDIwOjA2OjMyKzAwOjAw4+dragAAACV0RVh0ZGF0ZTptb2Rp ZnkAMjAxNi0wNC0xNlQwNzoyNzo0MiswMDowMJCcqYUAAAAASUVORK5CYII= "
       id="image22723"
       x="5"
       y="5.5291667"
       style="fill:#ffffff;filter:url(#filter899)" />
  </g>
</svg>
