<?xml version="1.0" encoding="UTF-8" standalone="no"?>
<!-- Generator: Adobe Illustrator 19.0.0, SVG Export Plug-In . SVG Version: 6.00 Build 0)  -->

<svg
   version="1.1"
   id="Layer_1"
   x="0px"
   y="0px"
   viewBox="0 0 100 100"
   xml:space="preserve"
   sodipodi:docname="gitlab-logo.svg"
   width="100"
   height="100"
   inkscape:version="1.1 (c68e22c387, 2021-05-23)"
   xmlns:inkscape="http://www.inkscape.org/namespaces/inkscape"
   xmlns:sodipodi="http://sodipodi.sourceforge.net/DTD/sodipodi-0.dtd"
   xmlns="http://www.w3.org/2000/svg"
   xmlns:svg="http://www.w3.org/2000/svg"><defs
   id="defs15" /><sodipodi:namedview
   id="namedview13"
   pagecolor="#505050"
   bordercolor="#eeeeee"
   borderopacity="1"
   inkscape:pageshadow="0"
   inkscape:pageopacity="0"
   inkscape:pagecheckerboard="0"
   showgrid="false"
   inkscape:zoom="3.6430141"
   inkscape:cx="69.447988"
   inkscape:cy="49.409636"
   inkscape:window-width="1920"
   inkscape:window-height="1019"
   inkscape:window-x="0"
   inkscape:window-y="0"
   inkscape:window-maximized="1"
   inkscape:current-layer="XMLID_23_" />
<style
   type="text/css"
   id="style2">
	.st0{fill:#E24329;}
	.st1{fill:#FC6D26;}
	.st2{fill:#FCA326;}
</style>
<g
   id="XMLID_23_"
   transform="matrix(0.26028271,0,0,0.26028271,-15.070677,-15.070677)">
	<polygon
   id="XMLID_25_"
   class="st0"
   points="182.8,211.3 250,418.1 317.2,211.3 "
   style="fill:#000000;stroke:#000000;stroke-opacity:1;stroke-width:5.76296443;stroke-miterlimit:4;stroke-dasharray:none" />
	<polygon
   id="XMLID_29_"
   class="st1"
   points="250,418.1 182.8,211.3 88.6,211.3 "
   style="fill:#666666;stroke:#000000;stroke-width:5.81313407;stroke-miterlimit:4;stroke-dasharray:none;stroke-opacity:1"
   transform="matrix(0.98266099,0,0,1.0001554,1.4954727,-0.05272899)" />
	<path
   id="XMLID_30_"
   class="st2"
   d="m 88.6,211.3 v 0 l -20.4,62.9 c -1.9,5.7 0.2,12 5.1,15.6 L 250,418.1 Z"
   style="fill:#999999;stroke:#000000;stroke-opacity:1;stroke-width:5.76296443;stroke-miterlimit:4;stroke-dasharray:none" />
	<path
   id="XMLID_31_"
   class="st0"
   d="m 88.6,211.3 h 94.2 L 142.3,86.7 c -2.1,-6.4 -11.2,-6.4 -13.2,0 z"
   style="fill:#000000;stroke:#000000;stroke-opacity:1;stroke-width:5.76296443;stroke-miterlimit:4;stroke-dasharray:none" />
	<polygon
   id="XMLID_32_"
   class="st1"
   points="411.4,211.3 250,418.1 317.2,211.3 "
   style="fill:#666666;stroke:#000000;stroke-width:5.81313407;stroke-miterlimit:4;stroke-dasharray:none;stroke-opacity:1"
   transform="matrix(0.98266099,0,0,1.0001554,9.1794253,-0.05272899)" />
	<path
   id="XMLID_33_"
   class="st2"
   d="m 411.4,211.3 v 0 l 20.4,62.9 c 1.9,5.7 -0.2,12 -5.1,15.6 L 250,418.1 Z"
   style="fill:#999999;stroke:#000000;stroke-opacity:1;stroke-width:5.76296443;stroke-miterlimit:4;stroke-dasharray:none" />
	<path
   id="XMLID_34_"
   class="st0"
   d="M 411.4,211.3 H 317.2 L 357.7,86.7 c 2.1,-6.4 11.2,-6.4 13.2,0 z"
   style="fill:#000000;stroke:#000000;stroke-opacity:1;stroke-width:5.76296443;stroke-miterlimit:4;stroke-dasharray:none" />
</g>
</svg>
